<svg width="210px" height="350px" viewBox="0 0 210 350" xmlns="http://www.w3.org/2000/svg">
  <title>onepercent-logo-with-name-vertical</title>
  <g id="onepercent-log-with-name-vertical" stroke="none" stroke-width="1" fill="none" fill-rule="evenodd">
    <g id="Group-2" transform="translate(6.000000, 27.000000)" stroke="#000000" stroke-width="40">
      <rect id="Rectangle-path" x="21" y="0" width="156" height="66"></rect>
      <path d="M1,130 L197,130" id="Shape"></path>
    </g>
    <g id="Group" transform="translate(5.000000, 192.000000)" fill="#000000">
      <text id="ONE" font-family="Exo-Bold, Exo" font-size="100" font-weight="bold">
        <tspan x="0" y="100">ONE</tspan>
      </text>
      <text id="percent" font-family="Exo-Medium, Exo" font-size="54" font-weight="400">
        <tspan x="5.19" y="141">percent</tspan>
      </text>
    </g>
  </g>
</svg>