<svg width="250px" height="395px" viewBox="0 0 250 395" xmlns="http://www.w3.org/2000/svg" aria-hidden="true">
  <title>onepercent-logo-name-bg-black</title>
  <g id="onepercent-logo-name-bg-black" stroke="none" stroke-width="1" fill="none" fill-rule="evenodd">
    <rect id="Rectangle-path" stroke="#FFFFFF" stroke-width="40" x="47" y="49" width="156" height="66"></rect>
    <path d="M27,179 L222,179" id="Shape" stroke="#FFFFFF" stroke-width="40"></path>
    <text id="ONE" font-family="Exo-Bold, Exo" font-size="100" font-weight="bold" fill="#FFFFFF">
      <tspan x="25" y="314">ONE</tspan>
    </text>
    <text id="percent" font-family="Exo-Medium, Exo" font-size="54" font-weight="400" fill="#FFFFFF">
      <tspan x="30.19" y="355">percent</tspan>
    </text>
  </g>
</svg>